235.073435 136.142848 -46.217341   2.000000
359.347528 205.905152 -75.544438   2.000000
432.129706 221.671040 -10.466822   2.000000
 33.228531 190.236057 -69.108177   2.000000
-58.074172 186.609271 -48.074172   2.000000
101.981233 211.926556   1.353375   2.000000
 66.841650 200.614004 -62.904108   2.000000
536.638367 129.029096   1.033963   2.000000
308.035324 206.199744  -7.047082   2.000000
348.836686 241.922316 -38.405581   2.000000
124.738422 198.080734 -43.835832   2.000000
682.513220 206.051710  -3.416355   2.000000
468.149452 178.274677 -66.178047   2.000000
311.187963 193.652191 -69.794696   2.000000
221.871506 217.431683  10.299462   2.000000
208.126248 130.768153 -57.968674   2.000000
389.589880 280.681333 -45.751356   2.000000
369.811799 119.140467 -38.845294   2.000000
565.061809 248.230886 -54.562844   2.000000
673.066153 201.452546 -68.114278   2.000000
